E:\Java\task5\task5-web\src\main\java\jv21701\bondarenko\task5\web\HomeFilter.java
E:\Java\task5\task5-web\src\main\java\jv21701\bondarenko\task5\web\RegisterServlet.java
E:\Java\task5\task5-web\src\main\java\jv21701\bondarenko\task5\web\IndexServlet.java
E:\Java\task5\task5-web\src\main\java\jv21701\bondarenko\task5\web\LogoutServlet.java
E:\Java\task5\task5-web\src\main\java\jv21701\bondarenko\task5\web\HomeServlet.java
E:\Java\task5\task5-web\src\main\java\utils\StringValidator.java
E:\Java\task5\task5-web\src\main\java\jv21701\bondarenko\task5\web\EditServlet.java
E:\Java\task5\task5-web\src\main\java\jv21701\bondarenko\task5\web\RequestFilter.java
